<svg width="22" height="18" viewBox="0 0 22 18" fill="none" xmlns="http://www.w3.org/2000/svg">
<path d="M22 2.2834C21.1905 2.63676 20.3206 2.87557 19.4076 2.98301C20.3396 2.43313 21.0552 1.56238 21.3922 0.524887C20.5062 1.04244 19.5369 1.40708 18.5261 1.60307C17.7027 0.739593 16.5297 0.199951 15.2315 0.199951C12.7388 0.199951 10.7178 2.18933 10.7178 4.64297C10.7178 4.99125 10.7577 5.33032 10.8347 5.65559C7.08348 5.47024 3.7577 3.70141 1.53149 1.01326C1.14305 1.66948 0.920477 2.4328 0.920477 3.24695C0.920477 4.78847 1.71738 6.14837 2.92841 6.94518C2.21164 6.92308 1.51065 6.73251 0.883953 6.38938C0.883695 6.40799 0.883695 6.4266 0.883695 6.4453C0.883695 8.59803 2.43951 10.3939 4.50424 10.802C3.83959 10.98 3.14242 11.006 2.46598 10.8782C3.0403 12.6434 4.70723 13.9279 6.68224 13.9638C5.13752 15.1555 3.19129 15.8658 1.07671 15.8658C0.712336 15.8658 0.353117 15.8448 0 15.8037C1.99745 17.0644 4.36992 17.7999 6.91883 17.7999C15.221 17.7999 19.7608 11.0296 19.7608 5.15825C19.7608 4.96554 19.7565 4.77392 19.7478 4.58341C20.6314 3.95459 21.3941 3.17574 22 2.2834Z" fill="#55ACEE"/>
</svg>
